name	nbRequest	nbRequestOK	nbRequestKO	minResponseTime	minResponseTimeOK	minResponseTimeKO	maxResponseTime	maxResponseTimeOK	maxResponseTimeKO	meanResponseTime	meanResponseTimeOK	meanResponseTimeKO	deviation	deviationOK	deviationKO	percentile1	percentile1OK	percentile1KO	percentile2	percentile2OK	percentile2KO	group1Name	group1Count	group1Percentage	group2Name	group2Count	group2Percentage	group3Name	group3Count	group3Percentage	group4Name	group4Count	group4Percentage	meanNumberOfRequestsPerSecond	meanNumberOfRequestsPerSecondOK	meanNumberOfRequestsPerSecondKO
Global Information	3	3	0	20	20	-1	430	430	-1	187	187	-1	176	176	-1	430	430	-1	430	430	-1	t < 800 ms	3	100	800 ms < t < 1200 ms	0	0	t > 1200 ms	0	0	failed	0	0	5	5	-1
request_2	1	1	0	110	110	-1	110	110	-1	110	110	-1	0	0	-1	110	110	-1	110	110	-1	t < 800 ms	1	100	800 ms < t < 1200 ms	0	0	t > 1200 ms	0	0	failed	0	0	2	2	-1
request_1	1	1	0	20	20	-1	20	20	-1	20	20	-1	0	0	-1	20	20	-1	20	20	-1	t < 800 ms	1	100	800 ms < t < 1200 ms	0	0	t > 1200 ms	0	0	failed	0	0	2	2	-1
request_1 Redirect 1	1	1	0	430	430	-1	430	430	-1	430	430	-1	0	0	-1	430	430	-1	430	430	-1	t < 800 ms	1	100	800 ms < t < 1200 ms	0	0	t > 1200 ms	0	0	failed	0	0	2	2	-1

